…
  total_females = sum(baseline_df$Sex == "female")
  
  female_apoe4_carriers = sum(baseline_df$Sex == "female" & baseline_df$`Apoe4_carrier` == "Yes")
  
  proportion = female_apoe4_carriers / total_females

  baseline_df |>
    
  filter(`Age_at_onset` != ".")
```

    ## # A tibble: 97 × 6
    ##    Study_ID Age_at_study_baseline Sex    Years_of_Education Apoe4_carrier
    ##    <chr>    <chr>                 <chr>  <chr>              <chr>        
    ##  1 3        62.5                  female 16                 Yes          
    ##  2 5        66                    female 16                 No           
    ##  3 7        66.5                  female 18                 No           
    ##  4 13       63.1                  female 12                 Yes          
    ##  5 14       58.4                  male   20                 No           
    ##  6 18       67.8                  female 16                 No           
    ##  7 22       67.3                  male   20                 Yes          
    ##  8 26       64.8                  male   20                 Yes          
    ##  9 30       66.3                  male   12                 No           
    ## 10 39       68.3                  male   16                 Yes          
    ## # ℹ 87 more rows
    ## # ℹ 1 more variable: Age_at_onset <chr>
…
